Analise COVID-19
…
Olha s a regio Nordeste  meu filho tem comer mais RAPADURA e tomar mais cachaa com mel e limo.

5 Isolando

Vamo que vamo, agora vamos dar uma olhada nas regies com maior nmero de casos o nosso querido NORDESTE e o povo l do Sul.

casos_nordeste_centro_oeste <- covid_regiao %>%
  filter(regiao == "Nordeste" | regiao == "Sudeste")%>%
  mutate(data=as.Date(data, format = "%Y-%m-%d"))
casos_nordeste_centro_oeste

## # A tibble: 178 x 6
## # Groups:   regiao [2]
##    regiao   data       casosNovos casosAcumulado obitosNovos obitosAcumulado
##    <chr>    <date>          <dbl>          <dbl>       <dbl>           <dbl>
##  1 Nordeste 2020-04-01        130           1005           5              27
##  2 Nordeste 2020-04-02        175           1180          16              43
##  3 Nordeste 2020-04-03        219           1399           8              51
##  4 Nordeste 2020-04-04        243           1642           8              59
##  5 Nordeste 2020-04-05        238           1880          19              78
##  6 Nordeste 2020-04-06        287           2167          14              92
##  7 Nordeste 2020-04-07        250           2417          11             103
##  8 Nordeste 2020-04-08        408           2825          38             141
##  9 Nordeste 2020-04-09        417           3242          32             173
## 10 Nordeste 2020-04-10        286           3528          21             194
## # ... with 168 more rows
…
O Nordeste ultrapassou o Sudeste no ms de Julho, infelizmente. Agora qual estado do Nordeste est com mais casos? Vamos ver se conseguimos achar

6 Casos Nordeste

Primeiro vamos filtrar o Nordeste para avaliar s ele No queremos ele misturado com outras gentalhas.

casos_nordeste <- regiao %>%
  filter(regiao == "Nordeste")%>%
  mutate(data=as.Date(data, format = "%Y-%m-%d"))
casos_nordeste

## # A tibble: 1,125 x 13
##    regiao estado municipio data       semanaEpi populacaoTCU2019 casosAcumulado
##    <chr>  <chr>  <chr>     <date>         <dbl> <chr>                     <dbl>
##  1 Norde~ MA     <NA>      2020-02-25         9 7075181                       0
##  2 Norde~ MA     <NA>      2020-02-26         9 7075181                       0
##  3 Norde~ MA     <NA>      2020-02-27         9 7075181                       0
##  4 Norde~ MA     <NA>      2020-02-28         9 7075181                       0
##  5 Norde~ MA     <NA>      2020-02-29         9 7075181                       0
##  6 Norde~ MA     <NA>      2020-03-01        10 7075181                       0
##  7 Norde~ MA     <NA>      2020-03-02        10 7075181                       0
##  8 Norde~ MA     <NA>      2020-03-03        10 7075181                       0
##  9 Norde~ MA     <NA>      2020-03-04        10 7075181                       0
## 10 Norde~ MA     <NA>      2020-03-05        10 7075181                       0
## # ... with 1,115 more rows, and 6 more variables: casosNovos <dbl>,
## #   obitosAcumulado <dbl>, obitosNovos <dbl>, Recuperadosnovos <dbl>,
## #   emAcompanhamentoNovos <dbl>, FgMetro <dbl>
…
